{
	"cryptoPassword": "changemme",
	"userid": "boomi email address",
	"accountId": "",
	"baseUrl": "https://api.boomi.com",
	"sslPort": 9443,
	"password": "changeme",
	"debug": true,
	"accountGroupConfig": {
		"selfServiceId": "enter account group id",
		"enter account group id": {
			"environmentName": "enter environment name",
			"atomName": "enter atom name",
			"cloudId": "enter cloud id",
			"productCodes": [
		        {  
            		"productCode": "enter product code",
            		"quantity": 1
        		}
			]
		}
	}
}